MarElkem.github.io - Mini-Project 4: Text Analysis
…
Here we can see that there are a lot of numbers, with some research we can find out that in the song “Outlawz” 2pac says “Things are not the same since 1995”. 1995 is the year when 2pac was released pending an appeal of a conviction in 1995

In Soulja’s Story, 1993 refers to a line “Straight soldier, 1993 onward”, I am unsure what it means as the song was released in 1991.

#Find words that are repeating twice in a row using regular expressions
tupac_tidy |> 
  mutate(repeated_words = str_extract_all(Lyrics, "\\b(\\w+)\\b[\\s]+\\1\\b")) |> 
  unnest(repeated_words) |> 
  filter(!is.na(repeated_words)) |> 
  distinct(Song, repeated_words) |> 
  select(Song, repeated_words)

# A tibble: 45 × 2
   Song                     repeated_words
   <chr>                    <chr>         
 1 Hail Mary                la la         
 2 Keep Ya Head Up          you you       
 3 Thugz Mansion (Acoustic) where where   
 4 Hit 'Em Up               ha ha         
 5 Hit 'Em Up               Ha Ha         
 6 Hit 'Em Up               four four     
 7 I Get Around             bye bye       
 8 Keep Your Head Up        you you       
 9 Me And My Girlfriend     uh uh         
10 Until The End Of Time    like like     
# ℹ 35 more rows
…
print(sentiment_scores)

# A tibble: 28 × 3
   Album                 sentiment sentiment_count
   <chr>                 <chr>               <int>
 1 2Pacalypse Now        negative              362
 2 2Pacalypse Now        positive              137
 3 All Eyez On Me        negative              718
 4 All Eyez On Me        positive              345
 5 Better Dayz           negative              184
 6 Better Dayz           positive              219
 7 Greatest Hits         negative              164
 8 Greatest Hits         positive               62
 9 Hip-Hop Classics 1996 negative               53
10 Hip-Hop Classics 1996 positive               35
# ℹ 18 more rows
…
